{
  "project_info": {
    "project_number": "428559690684",
    "project_id": "african-beauty-shop-e1620",
    "storage_bucket": "african-beauty-shop-e1620.appspot.com"
  },
  "client": [
    {
      "client_info": {
        "mobilesdk_app_id": "1:428559690684:android:07b806ff488857b6fad9b9",
        "android_client_info": {
          "package_name": "com.AfricanBeauty_AFRICA.store"
        }
      },
      "oauth_client": [
        {
          "client_id": "428559690684-a0pv4d74vet4cs2irrd6qkqc94cc7tm3.apps.googleusercontent.com",
          "client_type": 3
        }
      ],
      "api_key": [
        {
          "current_key": "AIzaSyBF_ZGZmi24dTIkbzJYw2IvCQM49xeoY70"
        }
      ],
      "services": {
        "appinvite_service": {
          "other_platform_oauth_client": [
            {
              "client_id": "428559690684-a0pv4d74vet4cs2irrd6qkqc94cc7tm3.apps.googleusercontent.com",
              "client_type": 3
            }
          ]
        }
      }
    }
  ],
  "configuration_version": "1"
}